How to use the package
…
fars_read_years() ::: manipulate database

fars_summarize_years() ::: makes a summary of the data

fars_map_state()::: makes an accident map

Examples

fars_read()

library(thefinal)
thefinal:::fars_read("accident_2014.csv.bz2") # file exists in current working directory

## # A tibble: 30,056 x 50
##    STATE ST_CASE VE_TOTAL VE_FORMS PVH_INVL  PEDS PERNOTMVIT PERMVIT
##    <int>   <int>    <int>    <int>    <int> <int>      <int>   <int>
##  1     1   10001        1        1        0     0          0       2
##  2     1   10002        1        1        0     0          0       1
##  3     1   10003        2        2        0     0          0       7
##  4     1   10004        3        3        0     0          0       5
##  5     1   10005        1        1        0     0          0       1
##  6     1   10006        1        1        0     0          0       1
##  7     1   10007        3        2        1     0          0       2
##  8     1   10008        2        2        0     0          0       4
##  9     1   10009        3        3        0     0          0       5
## 10     1   10010        2        2        0     0          0       6
## # ... with 30,046 more rows, and 42 more variables: PERSONS <int>,
## #   COUNTY <int>, CITY <int>, DAY <int>, MONTH <int>, YEAR <int>,
## #   DAY_WEEK <int>, HOUR <int>, MINUTE <int>, NHS <int>, ROAD_FNC <int>,
## #   ROUTE <int>, TWAY_ID <chr>, TWAY_ID2 <chr>, MILEPT <int>,
## #   LATITUDE <dbl>, LONGITUD <dbl>, SP_JUR <int>, HARM_EV <int>,
## #   MAN_COLL <int>, RELJCT1 <int>, RELJCT2 <int>, TYP_INT <int>,
## #   WRK_ZONE <int>, REL_ROAD <int>, LGT_COND <int>, WEATHER1 <int>,
## #   WEATHER2 <int>, WEATHER <int>, SCH_BUS <int>, RAIL <chr>,
## #   NOT_HOUR <int>, NOT_MIN <int>, ARR_HOUR <int>, ARR_MIN <int>,
…
make_filename()

library(thefinal)
make_filename(2013)

## [1] "accident_2013.csv.bz2"

fars_read_years()

library(thefinal)
fars_read_years(2014)

## [[1]]
## # A tibble: 30,056 x 2
##    MONTH  year
##    <int> <dbl>
##  1     1  2014
##  2     1  2014
##  3     1  2014
##  4     1  2014
##  5     1  2014
##  6     1  2014
##  7     1  2014
##  8     1  2014
##  9     1  2014
## 10     1  2014
## # ... with 30,046 more rows
…
